stm32f1xx_it.c:86:6:NMI_Handler	0	static
stm32f1xx_it.c:99:6:HardFault_Handler	0	static
stm32f1xx_it.c:114:6:MemManage_Handler	0	static
stm32f1xx_it.c:129:6:BusFault_Handler	0	static
stm32f1xx_it.c:144:6:UsageFault_Handler	0	static
stm32f1xx_it.c:159:6:SVC_Handler	0	static
stm32f1xx_it.c:172:6:DebugMon_Handler	0	static
stm32f1xx_it.c:185:6:PendSV_Handler	0	static
stm32f1xx_it.c:198:6:SysTick_Handler	0	static
stm32f1xx_it.c:233:6:USB_LP_CAN1_RX0_IRQHandler	0	static
stm32f1xx_it.c:219:6:USB_HP_CAN1_TX_IRQHandler	0	static
stm32f1xx_it.c:247:6:TIM4_IRQHandler	0	static
